Day 4 Analysis of variance | STAT 799 - Topics in Statistics: Applied linear mixed models in agriculture and life sciences
…
4.2 Analysis of variance

library(tidyverse)
library(lme4)

dat <- agridat::barrero.maize |> 
  filter(!loc %in% c("HW", "LE", "TH", "WE", "WH")) |> 
  mutate(year = as.factor(year))  
  
dat |>
  group_by(env) |> 
  summarise(n())

## # A tibble: 82 × 2
##    env    `n()`
##    <fct>  <int>
##  1 2000BA   144
##  2 2000CA   120
##  3 2000CC   120
##  4 2000CS   120
##  5 2000DU   128
##  6 2000GR   144
##  7 2000PR   104
##  8 2000SL   144
##  9 2001BA   112
## 10 2001CA   104
## # ℹ 72 more rows
…
